^C:\USERS\CIRE5\DESKTOP\NETWORKING\REPLICATION\PONGSERVER\DEBUG\REPLICATIONSERVER\BALL.OBJ|C:\USERS\CIRE5\DESKTOP\NETWORKING\REPLICATION\PONGSERVER\DEBUG\REPLICATIONSERVER\CLIENTPROXY.OBJ|C:\USERS\CIRE5\DESKTOP\NETWORKING\REPLICATION\PONGSERVER\DEBUG\REPLICATIONSERVER\GAMESERVER.OBJ|C:\USERS\CIRE5\DESKTOP\NETWORKING\REPLICATION\PONGSERVER\DEBUG\REPLICATIONSERVER\GRAPHICS.OBJ|C:\USERS\CIRE5\DESKTOP\NETWORKING\REPLICATION\PONGSERVER\DEBUG\REPLICATIONSERVER\INPUTSTATE.OBJ|C:\USERS\CIRE5\DESKTOP\NETWORKING\REPLICATION\PONGSERVER\DEBUG\REPLICATIONSERVER\MOVE.OBJ|C:\USERS\CIRE5\DESKTOP\NETWORKING\REPLICATION\PONGSERVER\DEBUG\REPLICATIONSERVER\MOVELIST.OBJ|C:\USERS\CIRE5\DESKTOP\NETWORKING\REPLICATION\PONGSERVER\DEBUG\REPLICATIONSERVER\NETWORKSERVER.OBJ|C:\USERS\CIRE5\DESKTOP\NETWORKING\REPLICATION\PONGSERVER\DEBUG\REPLICATIONSERVER\PADDLE.OBJ|C:\USERS\CIRE5\DESKTOP\NETWORKING\REPLICATION\PONGSERVER\DEBUG\REPLICATIONSERVER\RECT.OBJ|C:\USERS\CIRE5\DESKTOP\NETWORKING\REPLICATION\PONGSERVER\DEBUG\REPLICATIONSERVER\REPLICATIONSERVER.OBJ|C:\USERS\CIRE5\DESKTOP\NETWORKING\REPLICATION\PONGSERVER\DEBUG\REPLICATIONSERVER\STDAFX.OBJ
C:\USERS\CIRE5\DESKTOP\NETWORKING\REPLICATION\DEBUG\REPLICATIONSERVER.ILK
C:\USERS\CIRE5\DESKTOP\NETWORKING\REPLICATION\DEBUG\REPLICATIONSERVER.EXE
C:\USERS\CIRE5\DESKTOP\NETWORKING\REPLICATION\DEBUG\REPLICATIONSERVER.PDB
